1.323767315870187367e-01,5.593383024803608805e+02,7.318157277109996672e-04
2.815097114023716943e-02,1.189477653812838298e+02,5.172667009126989245e-04
5.154345908931177306e-02,2.177892637576553909e+02,6.775369396595804644e-04
4.219309782608662296e-01,1.782806950398026402e+03,3.977036231818687276e-03
4.859172828150425116e-02,2.053171617528348349e+02,7.794166639485425492e-03
1.373414176407257992e-01,5.803158491861653374e+02,8.496427175822000161e-03
1.469833789304439420e-01,6.210565306920166222e+02,8.728456043247522639e-03
1.336219303338700148e-01,5.645997056360704391e+02,4.702756297493719539e-03
